<svg width="60" height="65" viewBox="0 0 60 65" fill="none" xmlns="http://www.w3.org/2000/svg">
<path d="M59.984 30.0815C59.9073 28.0068 59.6387 25.8929 59.1783 23.8574C58.7178 21.8218 58.0272 19.8645 57.1831 17.9856C55.4565 14.2276 53.0392 10.8611 50.0848 8.16006C44.1759 2.64055 36.2719 -0.256213 28.5597 0.0178049C24.7228 0.174387 20.8858 0.879005 17.3175 2.36653C13.7492 3.81491 10.4878 6.08535 7.87868 8.94297C5.23121 11.7614 3.19764 15.1671 1.85472 18.7685C0.550167 22.409 -0.102109 26.2453 0.0129986 30.0815C0.128106 33.8786 0.972228 37.6757 2.507 41.0814C4.04176 44.5262 6.22881 47.6187 8.87628 50.1631C9.7204 50.9852 10.6029 51.7289 11.5238 52.4336V51.7289C10.7564 51.0635 10.0274 50.398 9.37508 49.6542C6.95782 46.9923 5.03936 43.8607 3.81155 40.5333C2.58373 37.1668 2.0082 33.6046 2.1233 30.0815C2.23841 26.5584 3.00579 23.0745 4.46382 19.9037C5.88348 16.7329 7.95542 13.9144 10.3727 11.5266C12.8283 9.17784 15.6676 7.29886 18.7755 5.92877C20.3103 5.26329 21.9218 4.7544 23.5717 4.40209C23.9937 4.3238 24.4158 4.24551 24.7995 4.20637C25.2215 4.16722 25.6436 4.08893 26.0657 4.04979L27.3319 3.97149H28.598C30.2863 4.04979 31.9362 4.28466 33.5477 4.67611C35.1592 5.06757 36.7323 5.65475 38.2287 6.35937C41.1831 7.80775 43.8306 9.84331 46.0176 12.3095C48.1663 14.7756 49.8162 17.6333 50.8522 20.6475C51.8881 23.6617 52.3486 26.8716 52.1951 30.0424C52.0416 33.2131 51.1591 36.2665 49.7778 38.9675C48.5884 41.2771 47.1687 43.4301 45.5572 45.4265V57.2093C45.7874 57.131 45.9793 57.0136 46.2095 56.9353C46.6699 56.7004 47.1304 56.4655 47.5908 56.1915C48.0512 55.9175 48.4733 55.6043 48.8953 55.3303C49.3174 55.0172 49.7395 54.704 50.1615 54.3517L51.351 53.2948C54.4589 50.398 56.8378 46.64 58.219 42.5689C59.6003 38.5369 60.0991 34.2309 59.984 30.0815Z" fill="white"/>
<path d="M39.7674 39.7676V50.2954V54.3561V64.8839L30.6976 52.3257L39.7674 39.7676Z" fill="white"/>
</svg>
