<svg width="158" height="159" viewBox="0 0 158 159" fill="none" xmlns="http://www.w3.org/2000/svg">
<path d="M0.0428518 83.0971C-0.126949 77.9143 0.212653 72.7315 0.976758 67.5487C1.82576 62.3659 3.09927 57.2681 4.88219 52.3402C8.44801 42.4843 13.9665 33.1383 21.1831 25.2367C24.8338 21.3283 28.8242 17.6749 33.239 14.5312C37.6538 11.3875 42.3233 8.66868 47.3325 6.45962C57.2658 2.12646 68.218 -0.0826028 79.0004 0.00236119C84.434 0.0873252 89.8677 0.682073 95.1315 1.7866C100.48 2.89114 105.574 4.59042 110.583 6.79948C120.517 11.1326 129.431 17.5049 136.733 25.3216C144.034 33.1383 149.638 42.3994 153.204 52.2552C156.854 62.196 158.298 72.7315 157.873 83.0121C157.364 93.3777 154.902 103.488 150.572 112.665C146.327 121.841 140.214 130.167 132.997 136.964C125.696 143.761 117.206 149.199 107.951 152.853C103.367 154.722 98.6124 155.996 93.7731 156.931C88.9338 157.865 84.0095 158.29 79.0853 158.29C74.1611 158.29 69.2368 157.78 64.3975 156.931C59.5582 155.996 54.8037 154.722 50.2191 152.853C45.6345 151.068 41.1347 148.859 36.9746 146.225C32.7296 143.591 28.7393 140.618 25.0885 137.134C17.7022 130.337 11.5893 122.096 7.2594 112.835C5.13689 108.161 3.43888 103.319 2.25027 98.3057C0.891858 93.4627 0.212653 88.2799 0.0428518 83.0971ZM7.76881 83.0971C7.4292 92.4432 8.87251 101.874 12.0987 110.795C15.325 119.717 20.3341 128.128 26.8714 135.265C30.1826 138.833 33.7484 142.062 37.7387 144.951C41.729 147.755 45.9741 150.219 50.3889 152.173C54.8886 154.127 59.5582 155.656 64.3975 156.676C69.2368 157.695 74.0762 158.12 79.0004 158.205C83.9246 158.205 88.8489 157.695 93.6033 156.676C98.4426 155.656 103.112 154.127 107.612 152.258C116.611 148.349 124.677 142.572 131.299 135.52C137.921 128.468 143.015 120.056 146.327 111.05C149.553 102.044 150.911 92.5281 150.402 83.1821C149.468 64.405 140.893 46.7325 127.564 34.5827C120.941 28.4653 113.215 23.7073 104.895 20.5636C96.5748 17.42 87.7452 15.8057 79.0004 15.9756C61.3411 16.1455 44.0214 22.7727 30.6071 34.8376C23.8999 40.7851 18.2965 48.1769 14.3062 56.5034C12.3534 60.6666 10.7403 64.9998 9.63662 69.5029C8.61781 73.836 8.02351 78.4241 7.76881 83.0971Z" fill="#1E1E1E"/>
<path d="M78.9999 36.5369C72.6323 36.5369 66.6044 37.8113 61.0859 40.1054C67.3685 42.9092 71.6984 49.1115 71.6984 56.4184C71.6984 66.2743 63.7178 74.2609 53.8693 74.2609C46.2283 74.2609 39.6909 69.4179 37.1439 62.6208C34.1724 68.8232 32.4744 75.7052 32.4744 83.0121C32.4744 108.671 53.275 129.572 78.9999 129.572C104.64 129.572 125.525 108.756 125.525 83.0121C125.525 57.2681 104.725 36.5369 78.9999 36.5369Z" fill="#1E1E1E"/>
</svg>
